/* XPM */
static char * maximize_active_xpm[] = {
"20 30 65 1",
" 	c None",
".	c #3B66A5",
"+	c #3A65A4",
"@	c #3964A4",
"#	c #3964A3",
"$	c #3863A3",
"%	c #3863A2",
"&	c #3762A2",
"*	c #3661A1",
"=	c #336996",
"-	c #24955C",
";	c #21C13C",
">	c #24D134",
",	c #24D133",
"'	c #22C13C",
")	c #25955C",
"!	c #3560A0",
"~	c #298074",
"{	c #25D034",
"]	c #36E746",
"^	c #39EA49",
"/	c #24D034",
"(	c #298174",
"_	c #2CDB3A",
":	c #2BDB3A",
"<	c #345F9F",
"[	c #316794",
"}	c #24D035",
"|	c #316793",
"1	c #335E9E",
"2	c #23945B",
"3	c #24935B",
"4	c #325E9E",
"5	c #21C13B",
"6	c #22BF3B",
"7	c #315D9D",
"8	c #24D033",
"9	c #315C9C",
"0	c #25D033",
"a	c #305B9B",
"b	c #2F5B9B",
"c	c #229259",
"d	c #22925B",
"e	c #2E5A9A",
"f	c #2C638F",
"g	c #24CE34",
"h	c #2B618F",
"i	c #2D5999",
"j	c #247C70",
"k	c #2BDB39",
"l	c #247B71",
"m	c #2C5898",
"n	c #2A608D",
"o	c #209058",
"p	c #21BE3B",
"q	c #219059",
"r	c #29608E",
"s	c #2B5797",
"t	c #2A5697",
"u	c #295596",
"v	c #295595",
"w	c #285494",
"x	c #275394",
"y	c #265293",
"z	c #255192",
"....................",
"++++++++++++++++++++",
"@@@@@@@@@@@@@@@@@@@@",
"####################",
"$$$$$$$$$$$$$$$$$$$$",
"%%%%%%%%%%%%%%%%%%%%",
"&&&&&&&&&&&&&&&&&&&&",
"********************",
"******=-;>,')=******",
"!!!!!~{]^^^^]/(!!!!!",
"!!!!~_^^^^^^^^:(!!!!",
"<<<[{^^^^^^^^^^}|<<<",
"1112]^^^^^^^^^^]3111",
"4445^^^^^^^^^^^^6444",
"777{^^^^^^^^^^^^8777",
"9990^^^^^^^^^^^^}999",
"aaa5^^^^^^^^^^^^6aaa",
"bbbc]^^^^^^^^^^]dbbb",
"eeef8^^^^^^^^^^gheee",
"iiiij:^^^^^^^^kliiii",
"iiiiij}]^^^^]gliiiii",
"mmmmmmnop88pqrmmmmmm",
"ssssssssssssssssssss",
"tttttttttttttttttttt",
"uuuuuuuuuuuuuuuuuuuu",
"vvvvvvvvvvvvvvvvvvvv",
"wwwwwwwwwwwwwwwwwwww",
"xxxxxxxxxxxxxxxxxxxx",
"yyyyyyyyyyyyyyyyyyyy",
"zzzzzzzzzzzzzzzzzzzz"};
