/* XPM */
static char * top_left_active_xpm[] = {
"2 30 28 1",
" 	c None",
".	c #3B66A5",
"+	c #3A65A4",
"@	c #3964A4",
"#	c #3964A3",
"$	c #3863A3",
"%	c #3863A2",
"&	c #3762A2",
"*	c #3661A1",
"=	c #3560A0",
"-	c #345F9F",
";	c #335E9E",
">	c #325E9E",
",	c #315D9D",
"'	c #315C9C",
")	c #305B9B",
"!	c #2F5B9B",
"~	c #2E5A9A",
"{	c #2D5999",
"]	c #2C5898",
"^	c #2B5797",
"/	c #2A5697",
"(	c #295596",
"_	c #295595",
":	c #285494",
"<	c #275394",
"[	c #265293",
"}	c #255192",
" .",
"++",
"@@",
"##",
"$$",
"%%",
"&&",
"**",
"**",
"==",
"==",
"--",
";;",
">>",
",,",
"''",
"))",
"!!",
"~~",
"{{",
"{{",
"]]",
"^^",
"//",
"((",
"__",
"::",
"<<",
"[[",
"}}"};
